module go-skeleton-module

go 1.17

require (
	github.com/joho/godotenv v1.4.0
	github.com/streadway/amqp v1.0.0
	gorm.io/driver/mysql v1.4.5
	gorm.io/gorm v1.24.3
)

require (
	github.com/go-sql-driver/mysql v1.7.0 // indirect
	github.com/jinzhu/inflection v1.0.0 // indirect
	github.com/jinzhu/now v1.1.5 // indirect
)
